verification/CalibrationCurrent.csv

#Digilent WaveForms Oscilloscope Acquisition
#Device Name: Discovery2
#Serial Number: SN:210321A36376
#Date Time: 2019-03-14 16:04:16.854
#Sample rate: 800000Hz
#Samples: 8192
#Trigger: Source: Channel 1 Type: Edge Condition: Rising Level: 2.95 V Hyst.: Auto HoldOff: 0 s
#Channel 1: Range: 500 mV/div Offset: -500 mV
#Channel 2: Range: 500 mV/div Offset: -500 mV
#Math 1: Function: (C1-C2)/301

Time (s),Channel 1 (V),Channel 2 (V),Math 1 (A)
-0.00512,-0.0270637,-0.00127197,-8.56867e-05
-0.00511875,-0.0273949,-0.00160749,-8.56723e-05
-0.0051175,-0.0273949,-0.001943,-8.45577e-05
-0.00511625,-0.0270637,-0.001943,-8.34574e-05
-0.005115,-0.0267325,-0.00160749,-8.34717e-05
-0.00511375,-0.0270637,-0.00160749,-8.4572e-05
-0.0051125,-0.0267325,-0.00160749,-8.34717e-05
-0.00511125,-0.0267325,-0.00127197,-8.45864e-05
-0.00511,-0.0270637,-0.000936452,-8.68014e-05
-0.00510875,-0.0264013,-0.000936452,-8.46008e-05
-0.0051075,-0.0267325,-0.00127197,-8.45864e-05
-0.00510625,-0.0267325,-0.00127197,-8.45864e-05
-0.005105,-0.0267325,-0.000936452,-8.57011e-05
-0.00510375,-0.0264013,-0.000936452,-8.46008e-05
-0.0051025,-0.0264013,-0.00127197,-8.34861e-05
-0.00510125,-0.0257389,-0.000936452,-8.24001e-05
-0.0051,-0.0257389,-0.00127197,-8.12855e-05
-0.00509875,-0.0264013,-0.000936452,-8.46008e-05
-0.0050975,-0.0264013,-0.00160749,-8.23714e-05
-0.00509625,-0.0260701,-0.000936452,-8.35005e-05
-0.005095,-0.0264013,-0.000936452,-8.46008e-05
-0.00509375,-0.0267325,-0.00127197,-8.45864e-05
-0.0050925,-0.0260701,-0.00127197,-8.23858e-05
-0.00509125,-0.0264013,-0.00127197,-8.34861e-05
-0.00509,-0.0264013,-0.000936452,-8.46008e-05
-0.00508875,-0.0260701,-0.000936452,-8.35005e-05
-0.0050875,-0.0260701,-0.00127197,-8.23858e-05
-0.00508625,-0.0260701,-0.00127197,-8.23858e-05
-0.005085,-0.0264013,-0.000936452,-8.46008e-05
-0.00508375,-0.0257389,-0.000600936,-8.35148e-05
-0.0050825,-0.0264013,-0.000600936,-8.57154e-05
-0.00508125,-0.0260701,-0.000600936,-8.46151e-05
-0.00508,-0.0260701,-0.000936452,-8.35005e-05
-0.00507875,-0.0254077,-0.000600936,-8.24145e-05
-0.0050775,-0.0257389,-0.000936452,-8.24001e-05
-0.00507625,-0.0254077,-0.000600936,-8.24145e-05
-0.005075,-0.0257389,-0.000936452,-8.24001e-05
-0.00507375,-0.0257389,-0.000936452,-8.24001e-05
-0.0050725,-0.0247453,-0.000600936,-8.02139e-05
-0.00507125,-0.0257389,-0.000936452,-8.24001e-05
-0.00507,-0.0257389,-0.000600936,-8.35148e-05
-0.00506875,-0.0260701,-0.000936452,-8.35005e-05
-0.0050675,-0.0254077,-0.000265419,-8.35292e-05
-0.00506625,-0.0257389,-0.000265419,-8.46295e-05
-0.005065,-0.0257389,-0.000936452,-8.24001e-05
-0.00506375,-0.0260701,-0.000936452,-8.35005e-05
-0.0050625,-0.0257389,-0.000265419,-8.46295e-05
-0.00506125,-0.0257389,-0.000265419,-8.46295e-05
-0.00506,-0.0257389,-0.000265419,-8.46295e-05
-0.00505875,-0.0257389,-0.000936452,-8.24001e-05
-0.0050575,-0.0260701,-0.000600936,-8.46151e-05
-0.00505625,-0.0254077,-0.000265419,-8.35292e-05
-0.005055,-0.0254077,-0.000265419,-8.35292e-05
-0.00505375,-0.0257389,-0.000600936,-8.35148e-05
-0.0050525,-0.0254077,-0.000265419,-8.35292e-05
-0.00505125,-0.0250765,-0.000600936,-8.13142e-05
-0.00505,-0.0254077,-0.000265419,-8.35292e-05
-0.00504875,-0.0257389,-0.000265419,-8.46295e-05
-0.0050475,-0.0247453,-0.000265419,-8.13286e-05
-0.00504625,-0.0254077,-0.000600936,-8.24145e-05
-0.005045,-0.0254077,-0.000265419,-8.35292e-05
-0.00504375,-0.0250765,-0.000265419,-8.24289e-05
-0.0050425,-0.0247453,-0.000265419,-8.13286e-05
-0.00504125,-0.0250765,-0.000600936,-8.13142e-05
-0.00504,-0.0250765,-0.000936452,-8.01995e-05
-0.00503875,-0.0250765,-0.000265419,-8.24289e-05
-0.0050375,-0.0250765,-0.000265419,-8.24289e-05
-0.00503625,-0.0247453,-0.000265419,-8.13286e-05
-0.005035,-0.0250765,-0.000265419,-8.24289e-05
-0.00503375,-0.0247453,-0.000265419,-8.13286e-05
-0.0050325,-0.0247453,7.00975e-05,-8.24432e-05
-0.00503125,-0.0250765,7.00975e-05,-8.35435e-05
-0.00503,-0.0247453,-0.000265419,-8.13286e-05
-0.00502875,-0.0247453,-0.000265419,-8.13286e-05
-0.0050275,-0.0250765,-0.000600936,-8.13142e-05
-0.00502625,-0.0254077,-0.000265419,-8.35292e-05
-0.005025,-0.0250765,-0.000600936,-8.13142e-05
-0.00502375,-0.0254077,-0.000600936,-8.24145e-05
-0.0050225,-0.0250765,-0.000600936,-8.13142e-05
-0.00502125,-0.0247453,-0.000600936,-8.02139e-05
-0.00502,-0.0250765,-0.000600936,-8.13142e-05
-0.00501875,-0.0250765,-0.000600936,-8.13142e-05
-0.0050175,-0.0247453,-0.000600936,-8.02139e-05
-0.00501625,-0.0244141,-0.000265419,-8.02283e-05
-0.005015,-0.0247453,-0.000265419,-8.13286e-05
-0.00501375,-0.0250765,-0.000600936,-8.13142e-05
-0.0050125,-0.0250765,-0.000265419,-8.24289e-05
-0.00501125,-0.0254077,-0.000265419,-8.35292e-05
-0.00501,-0.0247453,-0.000600936,-8.02139e-05
-0.00500875,-0.0250765,-0.000600936,-8.13142e-05
-0.0050075,-0.0250765,-0.000600936,-8.13142e-05
-0.00500625,-0.0247453,-0.000265419,-8.13286e-05
-0.005005,-0.0254077,-0.000265419,-8.35292e-05
-0.00500375,-0.0250765,-0.000265419,-8.24289e-05
-0.0050025,-0.0250765,-0.000600936,-8.13142e-05
-0.00500125,-0.0250765,-0.000600936,-8.13142e-05
-0.005,-0.0247453,-0.000600936,-8.02139e-05
-0.00499875,-0.0247453,-0.00127197,-7.79845e-05
-0.0049975,-0.0244141,-0.000936452,-7.79989e-05
-0.00499625,-0.0244141,-0.000265419,-8.02283e-05
-0.004995,-0.0250765,-0.000600936,-8.13142e-05
-0.00499375,-0.0247453,-0.000265419,-8.13286e-05
-0.0049925,-0.0244141,0.000405614,-8.24576e-05
-0.00499125,-0.0247453,7.00975e-05,-8.24432e-05
-0.00499,-0.0250765,7.00975e-05,-8.35435e-05
-0.00498875,-0.0250765,-0.000265419,-8.24289e-05
-0.0049875,-0.0244141,-0.000600936,-7.91136e-05
-0.00498625,-0.0247453,-0.000265419,-8.13286e-05
-0.004985,-0.0247453,-0.000265419,-8.13286e-05
-0.00498375,-0.0247453,-0.000265419,-8.13286e-05
-0.0049825,-0.0250765,-0.000600936,-8.13142e-05
-0.00498125,-0.0247453,7.00975e-05,-8.24432e-05
-0.00498,-0.0247453,-0.000600936,-8.02139e-05
-0.00497875,0.00870517,0.000405614,2.75733e-05
-0.0049775,0.0236088,7.00975e-05,7.82018e-05
-0.00497625,0.0232777,0.000405614,7.59868e-05
-0.004975,0.0226153,-0.000265419,7.60156e-05
-0.00497375,0.0226153,-0.000265419,7.60156e-05
-0.0049725,0.0229465,-0.000265419,7.71159e-05
-0.00497125,0.0232777,-0.000265419,7.82162e-05
-0.00497,0.0226153,-0.000265419,7.60156e-05
-0.00496875,0.0226153,7.00975e-05,7.49009e-05
-0.0049675,0.0229465,0.000405614,7.48865e-05
-0.00496625,0.0226153,7.00975e-05,7.49009e-05
-0.004965,0.0226153,-0.000265419,7.60156e-05
-0.00496375,0.0232777,-0.000265419,7.82162e-05
-0.0049625,0.0232777,-0.000265419,7.82162e-05
-0.00496125,0.0229465,7.00975e-05,7.60012e-05
-0.00496,0.0219529,-0.000265419,7.3815e-05
-0.00495875,0.0222841,-0.000265419,7.49153e-05
-0.0049575,0.0226153,-0.000600936,7.71302e-05
-0.00495625,0.0226153,7.00975e-05,7.49009e-05
-0.004955,0.0226153,-0.000265419,7.60156e-05
-0.00495375,0.0229465,-0.000265419,7.71159e-05
-0.0049525,0.0226153,-0.000600936,7.71302e-05
-0.00495125,0.0229465,-0.000265419,7.71159e-05
-0.00495,0.0229465,-0.000600936,7.82306e-05
-0.00494875,0.0222841,-0.000600936,7.60299e-05
-0.0049475,0.0226153,-0.000600936,7.71302e-05
-0.00494625,0.0226153,-0.000265419,7.60156e-05
-0.004945,0.0229465,-0.000600936,7.82306e-05
-0.00494375,0.0219529,-0.000265419,7.3815e-05
-0.0049425,0.0226153,-0.000265419,7.60156e-05
-0.00494125,0.0222841,7.00975e-05,7.38006e-05
-0.00494,0.0219529,7.00975e-05,7.27003e-05
-0.00493875,0.0219529,-0.000265419,7.3815e-05
-0.0049375,0.0222841,-0.000265419,7.49153e-05
-0.00493625,0.0226153,-0.000265419,7.60156e-05
-0.004935,0.0222841,-0.000265419,7.49153e-05
-0.00493375,0.0219529,-0.000265419,7.3815e-05
-0.0049325,0.0222841,-0.000265419,7.49153e-05
-0.00493125,0.0229465,-0.000265419,7.71159e-05
-0.00493,0.0226153,-0.000600936,7.71302e-05
-0.00492875,0.0226153,-0.000265419,7.60156e-05
-0.0049275,0.0222841,7.00975e-05,7.38006e-05
-0.00492625,0.0219529,-0.000265419,7.3815e-05
-0.004925,0.0222841,-0.000265419,7.49153e-05
-0.00492375,0.0222841,-0.000600936,7.60299e-05
-0.0049225,0.0226153,-0.000265419,7.60156e-05
-0.00492125,0.0219529,-0.000265419,7.3815e-05
-0.00492,0.0219529,-0.000265419,7.3815e-05
-0.00491875,0.0222841,-0.000265419,7.49153e-05
-0.0049175,0.0219529,-0.000600936,7.49296e-05
-0.00491625,0.0219529,-0.000600936,7.49296e-05
-0.004915,0.0219529,-0.000600936,7.49296e-05
-0.00491375,0.0219529,-0.000600936,7.49296e-05
-0.0049125,0.0219529,-0.000936452,7.60443e-05
-0.00491125,0.0219529,-0.000265419,7.3815e-05
-0.00491,0.0222841,7.00975e-05,7.38006e-05
-0.00490875,0.0216217,-0.000265419,7.27146e-05
-0.0049075,0.0212905,-0.000265419,7.16143e-05
-0.00490625,0.0219529,-0.000265419,7.3815e-05
-0.004905,0.0222841,-0.000600936,7.60299e-05
-0.00490375,0.0222841,-0.000265419,7.49153e-05
-0.0049025,0.0222841,-0.000265419,7.49153e-05
-0.00490125,0.0222841,-0.000265419,7.49153e-05
-0.0049,0.0222841,7.00975e-05,7.38006e-05
-0.00489875,0.0219529,-0.000600936,7.49296e-05
-0.0048975,0.0219529,-0.000265419,7.3815e-05
-0.00489625,0.0222841,-0.000265419,7.49153e-05
-0.004895,0.0219529,-0.000600936,7.49296e-05
-0.00489375,0.0216217,-0.000936452,7.4944e-05
-0.0048925,0.0219529,-0.000936452,7.60443e-05
-0.00489125,0.0209593,-0.000600936,7.16287e-05
-0.00489,0.0219529,-0.000265419,7.3815e-05
-0.00488875,0.0219529,-0.000600936,7.49296e-05
-0.0048875,0.0219529,-0.000600936,7.49296e-05
-0.00488625,0.0222841,-0.000265419,7.49153e-05
-0.004885,0.0212905,-0.000265419,7.16143e-05
-0.00488375,0.0216217,-0.000265419,7.27146e-05
-0.0048825,0.0216217,-0.000265419,7.27146e-05
-0.00488125,0.0219529,-0.000265419,7.3815e-05
-0.00488,0.0216217,-0.000265419,7.27146e-05
-0.00487875,0.0216217,-0.000265419,7.27146e-05
-0.0048775,0.0216217,-0.000600936,7.38293e-05
-0.00487625,0.0212905,-0.000600936,7.2729e-05
-0.004875,0.0212905,-0.000265419,7.16143e-05
-0.00487375,0.0212905,-0.000265419,7.16143e-05
-0.0048725,0.0212905,-0.000936452,7.38437e-05
-0.00487125,0.0216217,-0.000265419,7.27146e-05
-0.00487,0.0216217,-0.000936452,7.4944e-05
-0.00486875,0.0219529,-0.000600936,7.49296e-05
-0.0048675,0.0216217,-0.000265419,7.27146e-05
-0.00486625,0.0216217,-0.000265419,7.27146e-05
-0.004865,0.0219529,-0.000265419,7.3815e-05
-0.00486375,0.0216217,-0.000265419,7.27146e-05
-0.0048625,0.0216217,-0.000265419,7.27146e-05
-0.00486125,0.0212905,-0.000265419,7.16143e-05
-0.00486,0.0216217,-0.000265419,7.27146e-05
-0.00485875,0.0219529,-0.000265419,7.3815e-05
-0.0048575,0.0212905,-0.000265419,7.16143e-05
-0.00485625,0.0216217,7.00975e-05,7.16e-05
-0.004855,0.0212905,7.00975e-05,7.04997e-05
-0.00485375,0.0216217,-0.000600936,7.38293e-05
-0.0048525,0.0216217,-0.000600936,7.38293e-05
-0.00485125,0.0212905,-0.000936452,7.38437e-05
-0.00485,0.0212905,-0.000600936,7.2729e-05
-0.00484875,0.0216217,-0.000265419,7.27146e-05
-0.0048475,0.0209593,-0.000600936,7.16287e-05
-0.00484625,0.0212905,-0.000600936,7.2729e-05
-0.004845,0.0209593,-0.000600936,7.16287e-05
-0.00484375,0.0212905,-0.000600936,7.2729e-05
-0.0048425,0.0212905,-0.000265419,7.16143e-05
-0.00484125,0.0219529,-0.000936452,7.60443e-05
-0.00484,0.0216217,-0.000600936,7.38293e-05
-0.00483875,0.0209593,-0.000265419,7.0514e-05
-0.0048375,0.0209593,-0.000265419,7.0514e-05
-0.00483625,0.0212905,-0.000600936,7.2729e-05
-0.004835,0.0212905,-0.000265419,7.16143e-05
-0.00483375,0.0206281,-0.000265419,6.94137e-05
-0.0048325,0.0209593,-0.000600936,7.16287e-05
-0.00483125,0.0209593,-0.000265419,7.0514e-05
-0.00483,0.0209593,-0.000600936,7.16287e-05
-0.00482875,0.0212905,-0.000600936,7.2729e-05
-0.0048275,0.0216217,-0.000600936,7.38293e-05
-0.00482625,0.0212905,-0.000600936,7.2729e-05
-0.004825,0.0209593,-0.000936452,7.27434e-05
-0.00482375,0.0209593,-0.000600936,7.16287e-05
-0.0048225,0.0212905,-0.000600936,7.2729e-05
-0.00482125,0.0212905,-0.000600936,7.2729e-05
-0.00482,0.0212905,-0.000600936,7.2729e-05
-0.00481875,-0.0217646,-0.00160749,-6.69671e-05
-0.0048175,-0.0273949,-0.00127197,-8.6787e-05
-0.00481625,-0.0270637,-0.000936452,-8.68014e-05
-0.004815,-0.0267325,-0.000600936,-8.68157e-05
-0.00481375,-0.0267325,-0.000936452,-8.57011e-05
-0.0048125,-0.0264013,-0.000936452,-8.46008e-05
-0.00481125,-0.0260701,-0.000265419,-8.57298e-05
-0.00481,-0.0264013,-0.000600936,-8.57154e-05
-0.00480875,-0.0260701,-0.000600936,-8.46151e-05
-0.0048075,-0.0264013,-0.000936452,-8.46008e-05
-0.00480625,-0.0260701,-0.000600936,-8.46151e-05
-0.004805,-0.0260701,-0.000265419,-8.57298e-05
-0.00480375,-0.0260701,-0.000600936,-8.46151e-05
-0.0048025,-0.0260701,-0.000936452,-8.35005e-05
-0.00480125,-0.0260701,-0.000936452,-8.35005e-05
-0.0048,-0.0267325,-0.000600936,-8.68157e-05
-0.00479875,-0.0264013,7.00975e-05,-8.79448e-05
-0.0047975,-0.0260701,-0.000265419,-8.57298e-05
-0.00479625,-0.0260701,-0.000265419,-8.57298e-05
-0.004795,-0.0257389,-0.000265419,-8.46295e-05
-0.00479375,-0.0260701,-0.000600936,-8.46151e-05
-0.0047925,-0.0257389,-0.000600936,-8.35148e-05
-0.00479125,-0.0257389,-0.000600936,-8.35148e-05
-0.00479,-0.0260701,-0.000936452,-8.35005e-05
-0.00478875,-0.0257389,-0.000600936,-8.35148e-05
-0.0047875,-0.0257389,-0.000600936,-8.35148e-05
-0.00478625,-0.0257389,-0.000265419,-8.46295e-05
-0.004785,-0.0257389,-0.000265419,-8.46295e-05
-0.00478375,-0.0260701,-0.000600936,-8.46151e-05
-0.0047825,-0.0264013,-0.000600936,-8.57154e-05
-0.00478125,-0.0260701,7.00975e-05,-8.68445e-05
-0.00478,-0.0254077,-0.000265419,-8.35292e-05
-0.00477875,-0.0254077,-0.000600936,-8.24145e-05
-0.0047775,-0.0254077,-0.000265419,-8.35292e-05
-0.00477625,-0.0257389,-0.000600936,-8.35148e-05
-0.004775,-0.0254077,-0.000265419,-8.35292e-05
-0.00477375,-0.0254077,-0.000600936,-8.24145e-05
-0.0047725,-0.0254077,7.00975e-05,-8.46439e-05
-0.00477125,-0.0254077,-0.000265419,-8.35292e-05
-0.00477,-0.0250765,7.00975e-05,-8.35435e-05
-0.00476875,-0.0254077,-0.000265419,-8.35292e-05
-0.0047675,-0.0254077,7.00975e-05,-8.46439e-05
-0.00476625,-0.0250765,-0.000265419,-8.24289e-05
-0.004765,-0.0254077,-0.000265419,-8.35292e-05
-0.00476375,-0.0250765,-0.000265419,-8.24289e-05
-0.0047625,-0.0250765,-0.000600936,-8.13142e-05
-0.00476125,-0.0250765,-0.000265419,-8.24289e-05
-0.00476,-0.0254077,-0.000265419,-8.35292e-05
-0.00475875,-0.0254077,-0.000265419,-8.35292e-05
-0.0047575,-0.0254077,7.00975e-05,-8.46439e-05
-0.00475625,-0.0247453,0.000405614,-8.35579e-05
-0.004755,-0.0250765,-0.000265419,-8.24289e-05
-0.00475375,-0.0247453,-0.000600936,-8.02139e-05
-0.0047525,-0.0247453,-0.000265419,-8.13286e-05
-0.00475125,-0.0250765,-0.000265419,-8.24289e-05
-0.00475,-0.0247453,-0.000265419,-8.13286e-05
-0.00474875,-0.0250765,-0.000265419,-8.24289e-05
-0.0047475,-0.0250765,-0.000600936,-8.13142e-05
-0.00474625,-0.0250765,7.00975e-05,-8.35435e-05
-0.004745,-0.0247453,-0.000600936,-8.02139e-05
-0.00474375,-0.0247453,-0.000600936,-8.02139e-05
-0.0047425,-0.0254077,-0.000265419,-8.35292e-05
-0.00474125,-0.0244141,-0.000265419,-8.02283e-05
-0.00474,-0.0250765,-0.000265419,-8.24289e-05
-0.00473875,-0.0247453,-0.000265419,-8.13286e-05
-0.0047375,-0.0247453,-0.000265419,-8.13286e-05
-0.00473625,-0.0247453,-0.000600936,-8.02139e-05
-0.004735,-0.0247453,7.00975e-05,-8.24432e-05
-0.00473375,-0.0250765,-0.000265419,-8.24289e-05
-0.0047325,-0.0250765,-0.000265419,-8.24289e-05
-0.00473125,-0.0247453,-0.000265419,-8.13286e-05
-0.00473,-0.0250765,7.00975e-05,-8.35435e-05
-0.00472875,-0.0250765,7.00975e-05,-8.35435e-05
-0.0047275,-0.0257389,-0.000265419,-8.46295e-05
-0.00472625,-0.0247453,7.00975e-05,-8.24432e-05
-0.004725,-0.0247453,-0.000265419,-8.13286e-05
-0.00472375,-0.0250765,-0.000265419,-8.24289e-05
-0.0047225,-0.0247453,-0.000600936,-8.02139e-05
-0.00472125,-0.0244141,-0.000265419,-8.02283e-05
-0.00472,-0.0247453,-0.000265419,-8.13286e-05
-0.00471875,-0.0247453,-0.000600936,-8.02139e-05
-0.0047175,-0.0244141,-0.000265419,-8.02283e-05
-0.00471625,-0.0244141,7.00975e-05,-8.13429e-05
-0.004715,-0.0247453,-0.000265419,-8.13286e-05
-0.00471375,-0.0247453,-0.000265419,-8.13286e-05
-0.0047125,-0.0244141,7.00975e-05,-8.13429e-05
-0.00471125,-0.0247453,-0.000265419,-8.13286e-05
-0.00471,-0.0250765,7.00975e-05,-8.35435e-05
-0.00470875,-0.0250765,-0.000265419,-8.24289e-05
-0.0047075,-0.0247453,7.00975e-05,-8.24432e-05
-0.00470625,-0.0250765,7.00975e-05,-8.35435e-05
-0.004705,-0.0247453,7.00975e-05,-8.24432e-05
-0.00470375,-0.0250765,7.00975e-05,-8.35435e-05
-0.0047025,-0.0247453,0.000405614,-8.35579e-05
-0.00470125,-0.0244141,7.00975e-05,-8.13429e-05
-0.0047,-0.0247453,-0.000265419,-8.13286e-05
-0.00469875,-0.0244141,-0.000265419,-8.02283e-05
-0.0046975,-0.0250765,7.00975e-05,-8.35435e-05
-0.00469625,-0.0247453,7.00975e-05,-8.24432e-05
-0.004695,-0.0247453,-0.000265419,-8.13286e-05
-0.00469375,-0.0247453,-0.000600936,-8.02139e-05
-0.0046925,-0.0247453,-0.000265419,-8.13286e-05
-0.00469125,-0.0250765,-0.000265419,-8.24289e-05
-0.00469,-0.0247453,-0.000265419,-8.13286e-05
-0.00468875,-0.0250765,-0.000265419,-8.24289e-05
-0.0046875,-0.0247453,7.00975e-05,-8.24432e-05
-0.00468625,-0.0250765,7.00975e-05,-8.35435e-05
-0.004685,-0.0250765,-0.000265419,-8.24289e-05
-0.00468375,-0.0250765,-0.000265419,-8.24289e-05
-0.0046825,-0.0247453,-0.000600936,-8.02139e-05
-0.00468125,-0.0247453,-0.000600936,-8.02139e-05
-0.00468,-0.0244141,-0.000600936,-7.91136e-05
-0.00467875,-0.0247453,-0.000600936,-8.02139e-05
-0.0046775,-0.0247453,-0.000600936,-8.02139e-05
-0.00467625,-0.0244141,7.00975e-05,-8.13429e-05
-0.004675,-0.0244141,-0.000265419,-8.02283e-05
-0.00467375,-0.0247453,-0.000600936,-8.02139e-05
-0.0046725,-0.0247453,-0.000265419,-8.13286e-05
-0.00467125,-0.0247453,-0.000265419,-8.13286e-05
-0.00467,-0.0250765,-0.000600936,-8.13142e-05
-0.00466875,-0.0247453,7.00975e-05,-8.24432e-05
-0.0046675,-0.0240829,-0.000600936,-7.80133e-05
-0.00466625,-0.0244141,-0.000265419,-8.02283e-05
-0.004665,-0.0244141,-0.000265419,-8.02283e-05
-0.00466375,-0.0244141,7.00975e-05,-8.13429e-05
-0.0046625,-0.0247453,7.00975e-05,-8.24432e-05
-0.00466125,-0.0244141,-0.000265419,-8.02283e-05
-0.00466,-0.0217646,-0.000265419,-7.14258e-05
-0.00465875,0.02394,0.000405614,7.81875e-05
-0.0046575,0.0236088,7.00975e-05,7.82018e-05
-0.00465625,0.0236088,7.00975e-05,7.82018e-05
-0.004655,0.0229465,-0.000265419,7.71159e-05
-0.00465375,0.0226153,-0.000600936,7.71302e-05
-0.0046525,0.0229465,7.00975e-05,7.60012e-05
-0.00465125,0.0226153,7.00975e-05,7.49009e-05
-0.00465,0.0222841,0.000405614,7.26859e-05
-0.00464875,0.0226153,-0.000265419,7.60156e-05
-0.0046475,0.0226153,-0.000265419,7.60156e-05
-0.00464625,0.0229465,-0.000265419,7.71159e-05
-0.004645,0.0229465,-0.000265419,7.71159e-05
-0.00464375,0.0226153,-0.000600936,7.71302e-05
-0.0046425,0.0226153,-0.000600936,7.71302e-05
-0.00464125,0.0226153,-0.000265419,7.60156e-05
-0.00464,0.0226153,-0.000265419,7.60156e-05
-0.00463875,0.0226153,-0.000265419,7.60156e-05
-0.0046375,0.0226153,-0.000600936,7.71302e-05
-0.00463625,0.0219529,-0.000265419,7.3815e-05
-0.004635,0.0222841,7.00975e-05,7.38006e-05
-0.00463375,0.0222841,-0.000265419,7.49153e-05
-0.0046325,0.0226153,-0.000265419,7.60156e-05
-0.00463125,0.0222841,-0.000600936,7.60299e-05
-0.00463,0.0222841,-0.000600936,7.60299e-05
-0.00462875,0.0219529,-0.00127197,7.7159e-05
-0.0046275,0.0226153,-0.000265419,7.60156e-05
-0.00462625,0.0219529,-0.000265419,7.3815e-05
-0.004625,0.0222841,-0.000600936,7.60299e-05
-0.00462375,0.0229465,-0.000600936,7.82306e-05
-0.0046225,0.0222841,-0.000265419,7.49153e-05
-0.00462125,0.0222841,-0.000936452,7.71446e-05
-0.00462,0.0219529,-0.000936452,7.60443e-05
-0.00461875,0.0219529,-0.000265419,7.3815e-05
-0.0046175,0.0222841,-0.000265419,7.49153e-05
-0.00461625,0.0219529,-0.000600936,7.49296e-05
-0.004615,0.0219529,-0.000265419,7.3815e-05
-0.00461375,0.0222841,-0.000265419,7.49153e-05
-0.0046125,0.0222841,-0.000265419,7.49153e-05
-0.00461125,0.0226153,-0.000265419,7.60156e-05
-0.00461,0.0219529,-0.000265419,7.3815e-05
-0.00460875,0.0219529,7.00975e-05,7.27003e-05
-0.0046075,0.0219529,-0.000600936,7.49296e-05
-0.00460625,0.0222841,-0.000600936,7.60299e-05
-0.004605,0.0219529,-0.000265419,7.3815e-05
-0.00460375,0.0219529,-0.000600936,7.49296e-05
-0.0046025,0.0222841,-0.000265419,7.49153e-05
-0.00460125,0.0219529,-0.000600936,7.49296e-05
