verification/DACOUTPUT.csv

#Digilent WaveForms Oscilloscope Acquisition
#Device Name: Discovery2
#Serial Number: SN:210321A36376
#Date Time: 2019-03-14 16:46:10.204
#Sample rate: 800Hz
#Samples: 8192
#Trigger: Source: Channel 1 Type: Edge Condition: Rising Level: 0 V Hyst.: Auto HoldOff: 0 s
#Channel 1: Range: 1 V/div Offset: -2 V
#Channel 2: Range: 1 V/div Offset: -2 V
#Our λ: Function: C1/5*(1.36-0.65)+0.65
#Their λ: Function: C2/5*(1.36-0.68)+0.68
#Difference λ: Function: M2 -M1 

Time (s),Channel 1 (V),Channel 2 (V),Our λ (λ),Their λ (λ),Difference λ (λ)
-5.1175,2.17788,2.49592,0.95926,1.01945,0.0601859
-5.11625,2.17788,2.49592,0.95926,1.01945,0.0601859
-5.115,2.17788,2.49224,0.95926,1.01894,0.0596844
-5.11375,2.18516,2.49592,0.960292,1.01945,0.0591531
-5.1125,2.18516,2.49592,0.960292,1.01945,0.0591531
-5.11125,2.18516,2.49592,0.960292,1.01945,0.0591531
-5.11,2.18516,2.49592,0.960292,1.01945,0.0591531
-5.10875,2.18516,2.49592,0.960292,1.01945,0.0591531
-5.1075,2.18516,2.49592,0.960292,1.01945,0.0591531
-5.10625,2.18516,2.49224,0.960292,1.01894,0.0586517
-5.105,2.18516,2.49592,0.960292,1.01945,0.0591531
-5.10375,2.18516,2.49224,0.960292,1.01894,0.0586517
-5.1025,2.18879,2.49592,0.960809,1.01945,0.0586368
-5.10125,2.19243,2.49224,0.961325,1.01894,0.057619
-5.1,2.19243,2.49592,0.961325,1.01945,0.0581204
-5.09875,2.19243,2.49592,0.961325,1.01945,0.0581204
-5.0975,2.19243,2.49592,0.961325,1.01945,0.0581204
-5.09625,2.19243,2.49592,0.961325,1.01945,0.0581204
-5.095,2.19243,2.49592,0.961325,1.01945,0.0581204
-5.09375,2.19243,2.49592,0.961325,1.01945,0.0581204
-5.0925,2.19243,2.49592,0.961325,1.01945,0.0581204
-5.09125,2.19607,2.49592,0.961841,1.01945,0.057604
-5.09,2.1997,2.49224,0.962358,1.01894,0.0565862
-5.08875,2.1997,2.49592,0.962358,1.01945,0.0570877
-5.0875,2.1997,2.49592,0.962358,1.01945,0.0570877
-5.08625,2.1997,2.49592,0.962358,1.01945,0.0570877
-5.085,2.1997,2.49592,0.962358,1.01945,0.0570877
-5.08375,2.1997,2.49592,0.962358,1.01945,0.0570877
-5.0825,2.1997,2.49592,0.962358,1.01945,0.0570877
-5.08125,2.1997,2.49224,0.962358,1.01894,0.0565862
-5.08,2.21061,2.49592,0.963907,1.01945,0.0555386
-5.07875,2.21425,2.49224,0.964423,1.01894,0.0545208
-5.0775,2.21061,2.45537,0.963907,1.01393,0.0500229
-5.07625,2.21425,2.2489,0.964423,0.98585,0.0214271
-5.075,2.21425,2.17147,0.964423,0.975321,0.0108973
-5.07375,2.21425,2.14935,0.964423,0.972312,0.0078888
-5.0725,2.21425,2.14567,0.964423,0.971811,0.00738739
-5.07125,2.21425,2.14198,0.964423,0.971309,0.00688597
-5.07,2.21788,2.14198,0.96494,0.971309,0.0063696
-5.06875,2.24698,2.14198,0.969071,0.971309,0.00223867
-5.0675,2.24698,2.14198,0.969071,0.971309,0.00223867
-5.06625,2.24698,2.14198,0.969071,0.971309,0.00223867
-5.065,2.24698,2.14198,0.969071,0.971309,0.00223867
-5.06375,2.24698,2.14198,0.969071,0.971309,0.00223867
-5.0625,2.24698,2.14198,0.969071,0.971309,0.00223867
-5.06125,2.24698,2.14198,0.969071,0.971309,0.00223867
-5.06,2.25061,2.14198,0.969587,0.971309,0.0017223
-5.05875,2.26152,2.14198,0.971136,0.971309,0.000173198
-5.0575,2.28334,2.14198,0.974234,0.971309,-0.002925
-5.05625,2.28334,2.14198,0.974234,0.971309,-0.002925
-5.055,2.28334,2.14198,0.974234,0.971309,-0.002925
-5.05375,2.28334,2.14198,0.974234,0.971309,-0.002925
-5.0525,2.28334,2.14198,0.974234,0.971309,-0.002925
-5.05125,2.28334,2.14198,0.974234,0.971309,-0.002925
-5.05,2.28334,2.14198,0.974234,0.971309,-0.002925
-5.04875,2.28334,2.14198,0.974234,0.971309,-0.002925
-5.0475,2.29789,2.14198,0.9763,0.971309,-0.00499047
-5.04625,2.30516,2.14198,0.977332,0.971309,-0.0060232
-5.045,2.30516,2.14198,0.977332,0.971309,-0.0060232
-5.04375,2.30516,2.14198,0.977332,0.971309,-0.0060232
-5.0425,2.30516,2.14198,0.977332,0.971309,-0.0060232
-5.04125,2.30516,2.14198,0.977332,0.971309,-0.0060232
-5.04,2.30516,2.14198,0.977332,0.971309,-0.0060232
-5.03875,2.30516,2.14198,0.977332,0.971309,-0.0060232
-5.0375,2.30516,2.14198,0.977332,0.971309,-0.0060232
-5.03625,2.33061,2.14198,0.980947,0.971309,-0.00963777
-5.035,2.33425,2.14198,0.981463,0.971309,-0.0101541
-5.03375,2.33425,2.13829,0.981463,0.970808,-0.0106556
-5.0325,2.33425,2.14198,0.981463,0.971309,-0.0101541
-5.03125,2.33425,2.14198,0.981463,0.971309,-0.0101541
-5.03,2.33425,2.14198,0.981463,0.971309,-0.0101541
-5.02875,2.33425,2.14198,0.981463,0.971309,-0.0101541
-5.0275,2.33425,2.14198,0.981463,0.971309,-0.0101541
-5.02625,2.33425,2.14198,0.981463,0.971309,-0.0101541
-5.025,2.34152,2.14198,0.982496,0.971309,-0.0111869
-5.02375,2.34152,2.14198,0.982496,0.971309,-0.0111869
-5.0225,2.34152,2.14198,0.982496,0.971309,-0.0111869
-5.02125,2.34152,2.14198,0.982496,0.971309,-0.0111869
-5.02,2.33789,2.14198,0.98198,0.971309,-0.0106705
-5.01875,2.34152,2.14198,0.982496,0.971309,-0.0111869
-5.0175,2.34152,2.14198,0.982496,0.971309,-0.0111869
-5.01625,2.34152,2.14198,0.982496,0.971309,-0.0111869
-5.015,2.34152,2.14198,0.982496,0.971309,-0.0111869
-5.01375,2.34152,2.14198,0.982496,0.971309,-0.0111869
-5.0125,2.34152,2.14198,0.982496,0.971309,-0.0111869
-5.01125,2.34152,2.12354,0.982496,0.968802,-0.013694
-5.01,2.34152,2.07193,0.982496,0.961782,-0.0207138
-5.00875,2.34152,2.05349,0.982496,0.959275,-0.0232209
-5.0075,2.34152,2.04981,0.982496,0.958774,-0.0237223
-5.00625,2.34152,2.04612,0.982496,0.958272,-0.0242238
-5.005,2.34152,2.04612,0.982496,0.958272,-0.0242238
-5.00375,2.33789,2.04612,0.98198,0.958272,-0.0237074
-5.0025,2.33425,2.04612,0.981463,0.958272,-0.023191
-5.00125,2.33425,2.04612,0.981463,0.958272,-0.023191
-5,2.33425,2.04612,0.981463,0.958272,-0.023191
-4.99875,2.33425,2.04612,0.981463,0.958272,-0.023191
-4.9975,2.33425,2.04612,0.981463,0.958272,-0.023191
-4.99625,2.33425,2.04612,0.981463,0.958272,-0.023191
-4.995,2.33425,2.04612,0.981463,0.958272,-0.023191
-4.99375,2.33425,2.04612,0.981463,0.958272,-0.023191
-4.9925,2.33425,2.04612,0.981463,0.958272,-0.023191
-4.99125,2.33425,2.04612,0.981463,0.958272,-0.023191
-4.99,2.33425,2.04612,0.981463,0.958272,-0.023191
-4.98875,2.33425,2.04612,0.981463,0.958272,-0.023191
-4.9875,2.33425,2.04612,0.981463,0.958272,-0.023191
-4.98625,2.33425,2.04612,0.981463,0.958272,-0.023191
-4.985,2.33425,2.04612,0.981463,0.958272,-0.023191
-4.98375,2.33061,2.04612,0.980947,0.958272,-0.0226747
-4.9825,2.33061,2.04612,0.980947,0.958272,-0.0226747
-4.98125,2.3197,2.04612,0.979398,0.958272,-0.0211256
-4.98,2.3197,2.04612,0.979398,0.958272,-0.0211256
-4.97875,2.3197,2.04612,0.979398,0.958272,-0.0211256
-4.9775,2.3197,2.04612,0.979398,0.958272,-0.0211256
-4.97625,2.3197,2.04612,0.979398,0.958272,-0.0211256
-4.975,2.3197,2.04612,0.979398,0.958272,-0.0211256
-4.97375,2.3197,2.04612,0.979398,0.958272,-0.0211256
-4.9725,2.3197,2.04612,0.979398,0.958272,-0.0211256
-4.97125,2.30516,2.04612,0.977332,0.958272,-0.0190601
-4.97,2.27607,2.04612,0.973201,0.958272,-0.0149292
-4.96875,2.27607,2.04612,0.973201,0.958272,-0.0149292
-4.9675,2.27607,2.04612,0.973201,0.958272,-0.0149292
-4.96625,2.27607,2.04612,0.973201,0.958272,-0.0149292
-4.965,2.27607,2.04612,0.973201,0.958272,-0.0149292
-4.96375,2.27607,2.04612,0.973201,0.958272,-0.0149292
-4.9625,2.27607,2.04612,0.973201,0.958272,-0.0149292
-4.96125,2.27607,2.04612,0.973201,0.958272,-0.0149292
-4.96,2.25061,2.04612,0.969587,0.958272,-0.0113146
-4.95875,2.22879,2.04612,0.966489,0.958272,-0.0082164
-4.9575,2.22879,2.04612,0.966489,0.958272,-0.0082164
-4.95625,2.22879,2.04612,0.966489,0.958272,-0.0082164
-4.955,2.22879,2.04612,0.966489,0.958272,-0.0082164
-4.95375,2.22879,2.04612,0.966489,0.958272,-0.0082164
-4.9525,2.22879,2.04612,0.966489,0.958272,-0.0082164
-4.95125,2.22879,2.31158,0.966489,0.994374,0.0278858
-4.95,2.22879,2.69133,0.966489,1.04602,0.0795319
-4.94875,2.14152,2.80194,0.954096,1.06106,0.106967
-4.9475,2.12334,2.83143,0.951514,1.06507,0.11356
-4.94625,2.1197,2.8388,0.950998,1.06608,0.11508
-4.945,2.12334,2.84249,0.951514,1.06658,0.115065
-4.94375,2.1197,2.84618,0.950998,1.06708,0.116083
-4.9425,2.1197,2.84618,0.950998,1.06708,0.116083
-4.94125,2.1197,2.84618,0.950998,1.06708,0.116083
-4.94,2.1197,2.84618,0.950998,1.06708,0.116083
-4.93875,2.11607,2.84618,0.950481,1.06708,0.116599
-4.9375,2.01061,2.84618,0.935507,1.06708,0.131574
-4.93625,2.00697,2.84618,0.93499,1.06708,0.13209
-4.935,2.01061,2.84618,0.935507,1.06708,0.131574
-4.93375,2.00697,2.84618,0.93499,1.06708,0.13209
-4.9325,2.01061,2.84618,0.935507,1.06708,0.131574
-4.93125,2.00697,2.84618,0.93499,1.06708,0.13209
-4.93,2.00697,2.84618,0.93499,1.06708,0.13209
-4.92875,2.01061,2.84618,0.935507,1.06708,0.131574
-4.9275,1.98879,2.84618,0.932408,1.06708,0.134672
-4.92625,1.93061,2.84987,0.924147,1.06758,0.143435
-4.925,1.93061,2.84618,0.924147,1.06708,0.142934
-4.92375,1.93061,2.84618,0.924147,1.06708,0.142934
-4.9225,1.93061,2.84618,0.924147,1.06708,0.142934
-4.92125,1.93061,2.84618,0.924147,1.06708,0.142934
-4.92,1.93061,2.84618,0.924147,1.06708,0.142934
-4.91875,1.93061,2.84618,0.924147,1.06708,0.142934
-4.9175,1.93061,2.84618,0.924147,1.06708,0.142934
-4.91625,1.91606,2.84618,0.922081,1.06708,0.144999
-4.915,1.90152,2.84987,0.920016,1.06758,0.147566
-4.91375,1.90152,2.84618,0.920016,1.06708,0.147065
-4.9125,1.90152,2.84618,0.920016,1.06708,0.147065
-4.91125,1.90152,2.84618,0.920016,1.06708,0.147065
-4.91,1.90516,2.84618,0.920532,1.06708,0.146548
-4.90875,1.90152,2.84618,0.920016,1.06708,0.147065
-4.9075,1.90152,2.84618,0.920016,1.06708,0.147065
-4.90625,1.90152,2.84618,0.920016,1.06708,0.147065
-4.905,1.88334,2.84618,0.917434,1.06708,0.149646
-4.90375,1.87606,2.84618,0.916401,1.06708,0.150679
-4.9025,1.87606,2.84618,0.916401,1.06708,0.150679
-4.90125,1.87606,2.84618,0.916401,1.06708,0.150679
-4.9,1.87606,2.84618,0.916401,1.06708,0.150679
-4.89875,1.87606,2.84618,0.916401,1.06708,0.150679
-4.8975,1.87606,2.84618,0.916401,1.06708,0.150679
-4.89625,1.87606,2.84618,0.916401,1.06708,0.150679
-4.895,1.87606,2.84618,0.916401,1.06708,0.150679
-4.89375,1.84697,2.84618,0.91227,1.06708,0.15481
-4.8925,1.84697,2.84618,0.91227,1.06708,0.15481
-4.89125,1.84697,2.40375,0.91227,1.00691,0.0946398
-4.89,1.84697,2.08299,0.91227,0.963287,0.0510163
-4.88875,1.84697,1.98713,0.91227,0.95025,0.0379794
-4.8875,1.84697,1.96132,0.91227,0.94674,0.0344695
-4.88625,1.84697,1.95395,0.91227,0.945737,0.0334666
-4.885,1.84697,1.95026,0.91227,0.945235,0.0329652
-4.88375,1.84697,1.95026,0.91227,0.945235,0.0329652
-4.8825,1.84334,1.95026,0.911754,0.945235,0.0334816
-4.88125,1.83606,1.95026,0.910721,0.945235,0.0345143
-4.88,1.83243,1.94657,0.910205,0.944734,0.0345293
-4.87875,1.83243,1.95026,0.910205,0.945235,0.0350307
-4.8775,1.83243,1.94657,0.910205,0.944734,0.0345293
-4.87625,1.83606,1.95026,0.910721,0.945235,0.0345143
-4.875,1.83606,1.94657,0.910721,0.944734,0.0340129
-4.87375,1.83606,1.94657,0.910721,0.944734,0.0340129
-4.8725,1.83243,1.95026,0.910205,0.945235,0.0350307
-4.87125,1.84334,1.94657,0.911754,0.944734,0.0329802
-4.87,1.84697,1.95026,0.91227,0.945235,0.0329652
-4.86875,1.84697,1.94657,0.91227,0.944734,0.0324638
-4.8675,1.84697,1.95026,0.91227,0.945235,0.0329652
-4.86625,1.84697,1.94657,0.91227,0.944734,0.0324638
-4.865,1.84697,1.94657,0.91227,0.944734,0.0324638
-4.86375,1.84697,1.94657,0.91227,0.944734,0.0324638
-4.8625,1.84697,1.94657,0.91227,0.944734,0.0324638
-4.86125,1.84697,1.94657,0.91227,0.944734,0.0324638
-4.86,1.88697,1.94657,0.91795,0.944734,0.0267838
-4.85875,1.89061,1.94657,0.918467,0.944734,0.0262674
-4.8575,1.89061,1.94657,0.918467,0.944734,0.0262674
-4.85625,1.89061,1.95026,0.918467,0.945235,0.0267688
-4.855,1.89061,1.94657,0.918467,0.944734,0.0262674
-4.85375,1.88697,1.94657,0.91795,0.944734,0.0267838
-4.8525,1.89061,1.94657,0.918467,0.944734,0.0262674
-4.85125,1.88697,1.94657,0.91795,0.944734,0.0267838
-4.85,1.91243,1.94657,0.921565,0.944734,0.0231692
-4.84875,2.02152,1.94657,0.937056,0.944734,0.0076782
-4.8475,2.02152,1.94657,0.937056,0.944734,0.0076782
-4.84625,2.02152,1.94657,0.937056,0.944734,0.0076782
-4.845,2.02152,1.95026,0.937056,0.945235,0.00817962
-4.84375,2.02152,1.94657,0.937056,0.944734,0.0076782
-4.8425,2.02152,1.94657,0.937056,0.944734,0.0076782
-4.84125,2.02152,1.94657,0.937056,0.944734,0.0076782
-4.84,2.02152,1.94657,0.937056,0.944734,0.0076782
-4.83875,2.04334,1.94657,0.940154,0.944734,0.00458
-4.8375,2.0797,1.94657,0.945318,0.944734,-0.000583671
-4.83625,2.0797,1.94657,0.945318,0.944734,-0.000583671
-4.835,2.0797,1.94657,0.945318,0.944734,-0.000583671
-4.83375,2.0797,1.94657,0.945318,0.944734,-0.000583671
-4.8325,2.0797,1.94657,0.945318,0.944734,-0.000583671
-4.83125,2.0797,1.94657,0.945318,0.944734,-0.000583671
-4.83,2.0797,1.89127,0.945318,0.937213,-0.00810496
-4.82875,2.0797,1.79172,0.945318,0.923674,-0.0216433
-4.8275,2.10516,1.76592,0.948932,0.920164,-0.0287678
-4.82625,2.1197,1.75485,0.950998,0.91866,-0.0323375
-4.825,2.1197,1.75485,0.950998,0.91866,-0.0323375
-4.82375,2.1197,1.75485,0.950998,0.91866,-0.0323375
-4.8225,2.1197,1.75485,0.950998,0.91866,-0.0323375
-4.82125,2.1197,1.75117,0.950998,0.918159,-0.0328389
-4.82,2.1197,1.75485,0.950998,0.91866,-0.0323375
-4.81875,2.1197,1.75117,0.950998,0.918159,-0.0328389
-4.8175,2.1197,1.75117,0.950998,0.918159,-0.0328389
-4.81625,2.12697,1.75117,0.95203,0.918159,-0.0338716
-4.815,2.12697,1.75117,0.95203,0.918159,-0.0338716
-4.81375,2.12697,1.75485,0.95203,0.91866,-0.0333702
-4.8125,2.12697,1.75117,0.95203,0.918159,-0.0338716
-4.81125,2.12697,1.75117,0.95203,0.918159,-0.0338716
-4.81,2.12697,1.75117,0.95203,0.918159,-0.0338716
-4.80875,2.12697,1.75485,0.95203,0.91866,-0.0333702
-4.8075,2.12697,1.75117,0.95203,0.918159,-0.0338716
-4.80625,2.13061,1.75117,0.952547,0.918159,-0.034388
-4.805,2.14152,1.75117,0.954096,0.918159,-0.0359371
-4.80375,2.14152,1.75117,0.954096,0.918159,-0.0359371
-4.8025,2.14152,1.75117,0.954096,0.918159,-0.0359371
-4.80125,2.14152,1.75117,0.954096,0.918159,-0.0359371
-4.8,2.14152,1.75485,0.954096,0.91866,-0.0354357
-4.79875,2.14152,1.75117,0.954096,0.918159,-0.0359371
-4.7975,2.14152,1.75485,0.954096,0.91866,-0.0354357
-4.79625,2.14152,1.75117,0.954096,0.918159,-0.0359371
-4.795,2.13788,1.75485,0.95358,0.91866,-0.0349193
-4.79375,2.13788,1.75117,0.95358,0.918159,-0.0354207
-4.7925,2.13788,1.75485,0.95358,0.91866,-0.0349193
-4.79125,2.13425,1.75117,0.953063,0.918159,-0.0349044
-4.79,2.13425,1.75117,0.953063,0.918159,-0.0349044
-4.78875,2.13788,1.75485,0.95358,0.91866,-0.0349193
-4.7875,2.13788,1.75117,0.95358,0.918159,-0.0354207
-4.78625,2.13425,1.75485,0.953063,0.91866,-0.034403
-4.785,2.13788,1.75117,0.95358,0.918159,-0.0354207
-4.78375,2.14152,1.75485,0.954096,0.91866,-0.0354357
-4.7825,2.14152,1.75117,0.954096,0.918159,-0.0359371
-4.78125,2.14152,1.75117,0.954096,0.918159,-0.0359371
-4.78,2.14152,1.75117,0.954096,0.918159,-0.0359371
-4.77875,2.14152,1.75117,0.954096,0.918159,-0.0359371
-4.7775,2.14152,1.75117,0.954096,0.918159,-0.0359371
-4.77625,2.14152,1.75117,0.954096,0.918159,-0.0359371
-4.775,2.14152,1.75485,0.954096,0.91866,-0.0354357
-4.77375,2.14152,1.75117,0.954096,0.918159,-0.0359371
-4.7725,2.15243,1.75117,0.955645,0.918159,-0.0374862
-4.77125,2.15607,1.75117,0.956161,0.918159,-0.0380026
-4.77,2.15607,1.75117,0.956161,0.918159,-0.0380026
-4.76875,2.15607,1.81384,0.956161,0.926683,-0.0294785
-4.7675,2.15607,1.97607,0.956161,0.948745,-0.00741602
-4.76625,2.15607,2.02769,0.956161,0.955765,-0.000396155
-4.765,2.15607,2.03875,0.956161,0.957269,0.0011081
-4.76375,2.15607,2.04612,0.956161,0.958272,0.00211094
-4.7625,2.15607,2.04612,0.956161,0.958272,0.00211094
-4.76125,2.16334,2.04612,0.957194,0.958272,0.00107821
-4.76,2.16334,2.04612,0.957194,0.958272,0.00107821
-4.75875,2.16334,2.04612,0.957194,0.958272,0.00107821
-4.7575,2.16334,2.04612,0.957194,0.958272,0.00107821
-4.75625,2.16334,2.04612,0.957194,0.958272,0.00107821
-4.755,2.16334,2.04612,0.957194,0.958272,0.00107821
-4.75375,2.16334,2.04612,0.957194,0.958272,0.00107821
-4.7525,2.16334,2.04612,0.957194,0.958272,0.00107821
-4.75125,2.16334,2.04612,0.957194,0.958272,0.00107821
-4.75,2.15607,2.04612,0.956161,0.958272,0.00211094
-4.74875,2.15607,2.04612,0.956161,0.958272,0.00211094
-4.7475,2.15607,2.04612,0.956161,0.958272,0.00211094
-4.74625,2.15607,2.04612,0.956161,0.958272,0.00211094
-4.745,2.15607,2.04612,0.956161,0.958272,0.00211094
-4.74375,2.15607,2.04612,0.956161,0.958272,0.00211094
-4.7425,2.15607,2.04612,0.956161,0.958272,0.00211094
-4.74125,2.15607,2.04612,0.956161,0.958272,0.00211094
-4.74,2.15607,2.04612,0.956161,0.958272,0.00211094
-4.73875,2.15607,2.04612,0.956161,0.958272,0.00211094
-4.7375,2.15607,2.04612,0.956161,0.958272,0.00211094
-4.73625,2.15607,2.04612,0.956161,0.958272,0.00211094
-4.735,2.15607,2.04612,0.956161,0.958272,0.00211094
-4.73375,2.15607,2.04612,0.956161,0.958272,0.00211094
-4.7325,2.15607,2.04612,0.956161,0.958272,0.00211094
-4.73125,2.15607,2.04612,0.956161,0.958272,0.00211094
-4.73,2.15607,2.04612,0.956161,0.958272,0.00211094
-4.72875,2.16334,2.04612,0.957194,0.958272,0.00107821
-4.7275,2.16334,2.04612,0.957194,0.958272,0.00107821
-4.72625,2.16334,2.04612,0.957194,0.958272,0.00107821
-4.725,2.16334,2.04612,0.957194,0.958272,0.00107821
-4.72375,2.16334,2.04612,0.957194,0.958272,0.00107821
-4.7225,2.16334,2.04612,0.957194,0.958272,0.00107821
-4.72125,2.16698,2.04612,0.95771,0.958272,0.00056184
-4.72,2.16334,2.04612,0.957194,0.958272,0.00107821
-4.71875,2.17061,2.04612,0.958227,0.958272,4.54732e-05
-4.7175,2.23607,2.04612,0.967521,0.958272,-0.00924913
-4.71625,2.23607,2.04612,0.967521,0.958272,-0.00924913
-4.715,2.23607,2.04612,0.967521,0.958272,-0.00924913
-4.71375,2.23607,2.04981,0.967521,0.958774,-0.00874771
-4.7125,2.23607,2.04612,0.967521,0.958272,-0.00924913
-4.71125,2.23607,2.04612,0.967521,0.958272,-0.00924913
-4.71,2.23607,2.04612,0.967521,0.958272,-0.00924913
-4.70875,2.23243,2.04612,0.967005,0.958272,-0.00873276
-4.7075,2.25061,2.04612,0.969587,0.958272,-0.0113146
-4.70625,2.29061,2.08299,0.975267,0.963287,-0.0119804
-4.705,2.29061,2.15304,0.975267,0.972813,-0.00245348
-4.70375,2.29061,2.17147,0.975267,0.975321,5.36162e-05
-4.7025,2.29061,2.17885,0.975267,0.976323,0.00105645
-4.70125,2.29061,2.17885,0.975267,0.976323,0.00105645
-4.7,2.29061,2.18254,0.975267,0.976825,0.00155787
-4.69875,2.29061,2.18254,0.975267,0.976825,0.00155787
-4.6975,2.29061,2.18254,0.975267,0.976825,0.00155787
-4.69625,2.29061,2.18254,0.975267,0.976825,0.00155787
-4.695,2.29061,2.18254,0.975267,0.976825,0.00155787
-4.69375,2.29061,2.18254,0.975267,0.976825,0.00155787
-4.6925,2.29061,2.18254,0.975267,0.976825,0.00155787
-4.69125,2.29061,2.18254,0.975267,0.976825,0.00155787
-4.69,2.29061,2.18254,0.975267,0.976825,0.00155787
-4.68875,2.29061,2.18254,0.975267,0.976825,0.00155787
-4.6875,2.29061,2.18254,0.975267,0.976825,0.00155787
-4.68625,2.29061,2.18254,0.975267,0.976825,0.00155787
-4.685,2.32334,2.18254,0.979914,0.976825,-0.00308943
-4.68375,2.33425,2.18254,0.981463,0.976825,-0.00463853
-4.6825,2.33425,2.18254,0.981463,0.976825,-0.00463853
-4.68125,2.33425,2.18254,0.981463,0.976825,-0.00463853
-4.68,2.33425,2.18254,0.981463,0.976825,-0.00463853
-4.67875,2.33425,2.18254,0.981463,0.976825,-0.00463853
-4.6775,2.33425,2.18254,0.981463,0.976825,-0.00463853
-4.67625,2.33425,2.18254,0.981463,0.976825,-0.00463853
-4.675,2.33425,2.18254,0.981463,0.976825,-0.00463853
-4.67375,2.3597,2.18254,0.985078,0.976825,-0.0082531
-4.6725,2.36334,2.18254,0.985594,0.976825,-0.00876946
-4.67125,2.3597,2.18254,0.985078,0.976825,-0.0082531
-4.67,2.3597,2.18254,0.985078,0.976825,-0.0082531
-4.66875,2.3597,2.18254,0.985078,0.976825,-0.0082531
-4.6675,2.3597,2.18254,0.985078,0.976825,-0.0082531
-4.66625,2.3597,2.18254,0.985078,0.976825,-0.0082531
-4.665,2.3597,2.18254,0.985078,0.976825,-0.0082531
-4.66375,2.3597,2.18254,0.985078,0.976825,-0.0082531
-4.6625,2.37425,2.18254,0.987143,0.976825,-0.0103186
-4.66125,2.38879,2.18254,0.989209,0.976825,-0.012384
-4.66,2.38879,2.18254,0.989209,0.976825,-0.012384
-4.65875,2.38879,2.18254,0.989209,0.976825,-0.012384
-4.6575,2.38879,2.18254,0.989209,0.976825,-0.012384
-4.65625,2.38879,2.18254,0.989209,0.976825,-0.012384
-4.655,2.38879,2.18254,0.989209,0.976825,-0.012384
-4.65375,2.38879,2.18254,0.989209,0.976825,-0.012384
-4.6525,2.38879,2.18254,0.989209,0.976825,-0.012384
