verification/PureLambda.csv

#Digilent WaveForms Oscilloscope Acquisition
#Device Name: Discovery2
#Serial Number: SN:210321A36376
#Date Time: 2019-04-09 16:56:31.763
#Sample rate: 400000Hz
#Samples: 8192
#Trigger: Source: Channel 1 Type: Edge Condition: Either Level: 3 V Hyst.: Auto HoldOff: 0 s
#Our λ: Function: C1/5*(1.36-0.65)+0.65

Time (s),Our λ (λ)
-0.0102375,1.20195
-0.010235,1.20144
-0.0102325,1.20144
-0.01023,1.20144
-0.0102275,1.20195
-0.010225,1.20298
-0.0102225,1.20247
-0.01022,1.2035
-0.0102175,1.20298
-0.010215,1.20298
-0.0102125,1.20247
-0.01021,1.20298
-0.0102075,1.2035
-0.010205,1.2035
-0.0102025,1.2035
-0.0102,1.20402
-0.0101975,1.2035
-0.010195,1.2035
-0.0101925,1.2035
-0.01019,1.20505
-0.0101875,1.20453
-0.010185,1.20453
-0.0101825,1.20505
-0.01018,1.20505
-0.0101775,1.20505
-0.010175,1.20505
-0.0101725,1.20557
-0.01017,1.20557
-0.0101675,1.20557
-0.010165,1.20608
-0.0101625,1.20557
-0.01016,1.20557
-0.0101575,1.20557
-0.010155,1.20712
-0.0101525,1.2066
-0.01015,1.20608
-0.0101475,1.20712
-0.010145,1.20608
-0.0101425,1.2066
-0.01014,1.2066
-0.0101375,1.20712
-0.010135,1.20763
-0.0101325,1.20763
-0.01013,1.20763
-0.0101275,1.20763
-0.010125,1.20763
-0.0101225,1.20815
-0.01012,1.20815
-0.0101175,1.20866
-0.010115,1.20866
-0.0101125,1.20866
-0.01011,1.20918
-0.0101075,1.20866
-0.010105,1.20866
-0.0101025,1.20918
-0.0101,1.2097
-0.0100975,1.2097
-0.010095,1.2097
-0.0100925,1.2097
-0.01009,1.20918
-0.0100875,1.20918
-0.010085,1.21021
-0.0100825,1.21021
-0.01008,1.21021
-0.0100775,1.21073
-0.010075,1.21073
-0.0100725,1.21125
-0.01007,1.21125
-0.0100675,1.21176
-0.010065,1.21176
-0.0100625,1.21176
-0.01006,1.21125
-0.0100575,1.21176
-0.010055,1.21176
-0.0100525,1.21228
-0.01005,1.2128
-0.0100475,1.2128
-0.010045,1.2128
-0.0100425,1.2128
-0.01004,1.21228
-0.0100375,1.2128
-0.010035,1.2128
-0.0100325,1.21331
-0.01003,1.21331
-0.0100275,1.21434
-0.010025,1.21331
-0.0100225,1.21383
-0.01002,1.21331
-0.0100175,1.21383
-0.010015,1.21486
-0.0100125,1.21486
-0.01001,1.21486
-0.0100075,1.21383
-0.010005,1.21434
-0.0100025,1.21538
-0.01,1.21538
-0.0099975,1.21589
-0.009995,1.21486
-0.0099925,1.21486
-0.00999,1.21538
-0.0099875,1.21589
-0.009985,1.21538
-0.0099825,1.21641
-0.00998,1.21693
-0.0099775,1.21693
-0.009975,1.21693
-0.0099725,1.21641
-0.00997,1.21693
-0.0099675,1.21693
-0.009965,1.21744
-0.0099625,1.21796
-0.00996,1.21796
-0.0099575,1.21744
-0.009955,1.21796
-0.0099525,1.21796
-0.00995,1.21796
-0.0099475,1.21848
-0.009945,1.21899
-0.0099425,1.21899
-0.00994,1.21796
-0.0099375,1.21899
-0.009935,1.21848
-0.0099325,1.21848
-0.00993,1.21951
-0.0099275,1.22002
-0.009925,1.21899
-0.0099225,1.22002
-0.00992,1.21951
-0.0099175,1.22002
-0.009915,1.21951
-0.0099125,1.22002
-0.00991,1.22054
-0.0099075,1.22054
-0.009905,1.22106
-0.0099025,1.22106
-0.0099,1.22054
-0.0098975,1.22106
-0.009895,1.22157
-0.0098925,1.22157
-0.00989,1.22106
-0.0098875,1.22157
-0.009885,1.22106
-0.0098825,1.22157
-0.00988,1.22106
-0.0098775,1.22261
-0.009875,1.22261
-0.0098725,1.22261
-0.00987,1.22209
-0.0098675,1.22209
-0.009865,1.22261
-0.0098625,1.22261
-0.00986,1.22312
-0.0098575,1.22312
-0.009855,1.22364
-0.0098525,1.22364
-0.00985,1.22261
-0.0098475,1.22364
-0.009845,1.22364
-0.0098425,1.22467
-0.00984,1.22416
-0.0098375,1.22416
-0.009835,1.22467
-0.0098325,1.22416
-0.00983,1.22416
-0.0098275,1.22416
-0.009825,1.2257
-0.0098225,1.2257
-0.00982,1.22622
-0.0098175,1.2257
-0.009815,1.22519
-0.0098125,1.2257
-0.00981,1.22622
-0.0098075,1.22622
-0.009805,1.22674
-0.0098025,1.22674
-0.0098,1.22674
-0.0097975,1.22674
-0.009795,1.22622
-0.0097925,1.22674
-0.00979,1.22674
-0.0097875,1.22777
-0.009785,1.22725
-0.0097825,1.22725
-0.00978,1.22777
-0.0097775,1.22725
-0.009775,1.22777
-0.0097725,1.22829
-0.00977,1.2288
-0.0097675,1.2288
-0.009765,1.22829
-0.0097625,1.22829
-0.00976,1.2288
-0.0097575,1.2288
-0.009755,1.22932
-0.0097525,1.22932
-0.00975,1.22984
-0.0097475,1.22984
-0.009745,1.22984
-0.0097425,1.22984
-0.00974,1.22984
-0.0097375,1.23087
-0.009735,1.23087
-0.0097325,1.23087
-0.00973,1.23035
-0.0097275,1.23087
-0.009725,1.23138
-0.0097225,1.23087
-0.00972,1.23138
-0.0097175,1.23138
-0.009715,1.23087
-0.0097125,1.23087
-0.00971,1.23138
-0.0097075,1.23138
-0.009705,1.2319
-0.0097025,1.23293
-0.0097,1.23345
-0.0096975,1.23293
-0.009695,1.23293
-0.0096925,1.2319
-0.00969,1.23242
-0.0096875,1.23345
-0.009685,1.23397
-0.0096825,1.23397
-0.00968,1.23345
-0.0096775,1.23397
-0.009675,1.23345
-0.0096725,1.23397
-0.00967,1.23345
-0.0096675,1.23448
-0.009665,1.23448
-0.0096625,1.23448
-0.00966,1.23448
-0.0096575,1.23448
-0.009655,1.235
-0.0096525,1.235
-0.00965,1.23552
-0.0096475,1.23552
-0.009645,1.23552
-0.0096425,1.23552
-0.00964,1.235
-0.0096375,1.235
-0.009635,1.23552
-0.0096325,1.23655
-0.00963,1.23655
-0.0096275,1.23706
-0.009625,1.23603
-0.0096225,1.23603
-0.00962,1.23603
-0.0096175,1.23706
-0.009615,1.2381
-0.0096125,1.23861
-0.00961,1.23758
-0.0096075,1.23758
-0.009605,1.23706
-0.0096025,1.23758
-0.0096,1.2381
-0.0095975,1.2381
-0.009595,1.2381
-0.0095925,1.23861
-0.00959,1.23861
-0.0095875,1.23861
-0.009585,1.23861
-0.0095825,1.23913
-0.00958,1.23965
-0.0095775,1.23913
-0.009575,1.23913
-0.0095725,1.23913
-0.00957,1.23913
-0.0095675,1.23965
-0.009565,1.23913
-0.0095625,1.23913
-0.00956,1.23913
-0.0095575,1.23965
-0.009555,1.23965
-0.0095525,1.23965
-0.00955,1.23965
-0.0095475,1.24016
-0.009545,1.24016
-0.0095425,1.23913
-0.00954,1.23913
-0.0095375,1.23965
-0.009535,1.23965
-0.0095325,1.23913
-0.00953,1.23861
-0.0095275,1.23913
-0.009525,1.23913
-0.0095225,1.23965
-0.00952,1.24016
-0.0095175,1.23965
-0.009515,1.24016
-0.0095125,1.24068
-0.00951,1.24068
-0.0095075,1.24068
-0.009505,1.24068
-0.0095025,1.24171
-0.0095,1.2412
-0.0094975,1.2412
-0.009495,1.2412
-0.0094925,1.24223
-0.00949,1.24171
-0.0094875,1.24171
-0.009485,1.24326
-0.0094825,1.24171
-0.00948,1.24223
-0.0094775,1.24274
-0.009475,1.24223
-0.0094725,1.24223
-0.00947,1.24378
-0.0094675,1.24326
-0.009465,1.24429
-0.0094625,1.24378
-0.00946,1.24326
-0.0094575,1.24326
-0.009455,1.24274
-0.0094525,1.24429
-0.00945,1.24481
-0.0094475,1.24481
-0.009445,1.24429
-0.0094425,1.24378
-0.00944,1.24481
-0.0094375,1.24481
-0.009435,1.24584
-0.0094325,1.24584
-0.00943,1.24533
-0.0094275,1.24533
-0.009425,1.24533
-0.0094225,1.24636
-0.00942,1.24636
-0.0094175,1.24688
-0.009415,1.24688
-0.0094125,1.24636
-0.00941,1.24636
-0.0094075,1.24636
-0.009405,1.24636
-0.0094025,1.24688
-0.0094,1.24842
-0.0093975,1.24791
-0.009395,1.24791
-0.0093925,1.24688
-0.00939,1.24791
-0.0093875,1.24739
-0.009385,1.24791
-0.0093825,1.24842
-0.00938,1.24842
-0.0093775,1.24842
-0.009375,1.24842
-0.0093725,1.24842
-0.00937,1.24842
-0.0093675,1.24842
-0.009365,1.24946
-0.0093625,1.24946
-0.00936,1.24946
-0.0093575,1.24997
-0.009355,1.24997
-0.0093525,1.24997
-0.00935,1.24997
-0.0093475,1.25049
-0.009345,1.25049
-0.0093425,1.25049
-0.00934,1.25101
-0.0093375,1.25049
-0.009335,1.25049
-0.0093325,1.25101
-0.00933,1.25256
-0.0093275,1.25152
-0.009325,1.25101
-0.0093225,1.25152
-0.00932,1.25152
-0.0093175,1.25256
-0.009315,1.25204
-0.0093125,1.25256
-0.00931,1.25307
-0.0093075,1.25256
-0.009305,1.25256
-0.0093025,1.25204
-0.0093,1.25256
-0.0092975,1.25307
-0.009295,1.25307
-0.0092925,1.25307
-0.00929,1.25359
-0.0092875,1.25359
-0.009285,1.25359
-0.0092825,1.25307
-0.00928,1.25411
-0.0092775,1.25359
-0.009275,1.25462
-0.0092725,1.25462
-0.00927,1.25462
-0.0092675,1.25411
-0.009265,1.25462
-0.0092625,1.25462
-0.00926,1.25514
-0.0092575,1.25514
-0.009255,1.25565
-0.0092525,1.25514
-0.00925,1.25617
-0.0092475,1.25565
-0.009245,1.25669
-0.0092425,1.25617
-0.00924,1.25617
-0.0092375,1.2572
-0.009235,1.25669
-0.0092325,1.2572
-0.00923,1.25669
-0.0092275,1.25669
-0.009225,1.2572
-0.0092225,1.25772
-0.00922,1.25772
-0.0092175,1.25772
-0.009215,1.25772
-0.0092125,1.2572
-0.00921,1.25824
-0.0092075,1.25875
-0.009205,1.25927
-0.0092025,1.25824
-0.0092,1.25875
-0.0091975,1.25927
-0.009195,1.25927
-0.0091925,1.25979
-0.00919,1.2603
-0.0091875,1.25979
-0.009185,1.25927
-0.0091825,1.25979
-0.00918,1.25927
-0.0091775,1.25927
-0.009175,1.2603
-0.0091725,1.26082
-0.00917,1.26082
-0.0091675,1.2603
-0.009165,1.26082
-0.0091625,1.2603
-0.00916,1.26082
-0.0091575,1.26133
-0.009155,1.26133
-0.0091525,1.26185
-0.00915,1.26185
-0.0091475,1.26133
-0.009145,1.26237
-0.0091425,1.26185
-0.00914,1.26288
-0.0091375,1.26237
-0.009135,1.26185
-0.0091325,1.26237
-0.00913,1.26288
-0.0091275,1.26288
-0.009125,1.26288
-0.0091225,1.26392
-0.00912,1.2634
-0.0091175,1.26288
-0.009115,1.26392
-0.0091125,1.26392
-0.00911,1.2634
-0.0091075,1.26443
-0.009105,1.26443
-0.0091025,1.26443
-0.0091,1.26443
-0.0090975,1.26443
-0.009095,1.26495
-0.0090925,1.26547
-0.00909,1.26547
-0.0090875,1.26598
-0.009085,1.26495
-0.0090825,1.26495
-0.00908,1.26547
-0.0090775,1.26547
-0.009075,1.26547
-0.0090725,1.26547
-0.00907,1.26701
-0.0090675,1.26701
-0.009065,1.2665
-0.0090625,1.2665
-0.00906,1.2665
-0.0090575,1.26701
-0.009055,1.26701
-0.0090525,1.26753
-0.00905,1.26701
-0.0090475,1.26753
-0.009045,1.26753
-0.0090425,1.26805
-0.00904,1.26753
-0.0090375,1.26805
-0.009035,1.26856
-0.0090325,1.26856
-0.00903,1.26908
-0.0090275,1.26856
-0.009025,1.26856
-0.0090225,1.26856
-0.00902,1.26908
-0.0090175,1.2696
-0.009015,1.2696
-0.0090125,1.26856
-0.00901,1.2696
-0.0090075,1.26908
-0.009005,1.27011
-0.0090025,1.27063
-0.009,1.27063
-0.0089975,1.27063
-0.008995,1.27063
-0.0089925,1.27063
-0.00899,1.27063
-0.0089875,1.27063
-0.008985,1.27115
-0.0089825,1.27166
-0.00898,1.27166
-0.0089775,1.27166
-0.008975,1.27166
-0.0089725,1.27115
-0.00897,1.27115
-0.0089675,1.27218
-0.008965,1.27218
-0.0089625,1.27269
-0.00896,1.27269
-0.0089575,1.27218
-0.008955,1.27218
-0.0089525,1.27321
-0.00895,1.27321
-0.0089475,1.27373
-0.008945,1.27373
-0.0089425,1.27373
-0.00894,1.27321
-0.0089375,1.27424
-0.008935,1.27373
-0.0089325,1.27476
-0.00893,1.27476
-0.0089275,1.27424
-0.008925,1.27476
-0.0089225,1.27476
-0.00892,1.27424
-0.0089175,1.27424
-0.008915,1.27528
-0.0089125,1.27579
-0.00891,1.27528
-0.0089075,1.27579
-0.008905,1.27579
-0.0089025,1.27528
-0.0089,1.27631
-0.0088975,1.27631
-0.008895,1.27683
-0.0088925,1.27683
-0.00889,1.27683
-0.0088875,1.27631
-0.008885,1.27631
-0.0088825,1.27631
-0.00888,1.27837
-0.0088775,1.27837
-0.008875,1.27786
-0.0088725,1.27734
-0.00887,1.27734
-0.0088675,1.27786
-0.008865,1.27734
-0.0088625,1.27889
-0.00886,1.27837
-0.0088575,1.27837
-0.008855,1.27837
-0.0088525,1.27837
-0.00885,1.27837
-0.0088475,1.27786
-0.008845,1.27941
-0.0088425,1.27992
-0.00884,1.27941
-0.0088375,1.27941
-0.008835,1.27941
-0.0088325,1.27992
-0.00883,1.27941
-0.0088275,1.28044
-0.008825,1.27992
-0.0088225,1.27992
-0.00882,1.28044
-0.0088175,1.28044
-0.008815,1.28044
-0.0088125,1.28096
-0.00881,1.28147
-0.0088075,1.28147
-0.008805,1.28147
-0.0088025,1.28147
-0.0088,1.28147
-0.0087975,1.28199
-0.008795,1.28199
-0.0087925,1.28199
-0.00879,1.28251
-0.0087875,1.28147
-0.008785,1.28251
-0.0087825,1.28251
-0.00878,1.28251
-0.0087775,1.28302
-0.008775,1.28405
-0.0087725,1.28354
-0.00877,1.28354
-0.0087675,1.28354
-0.008765,1.28354
-0.0087625,1.28405
-0.00876,1.28354
-0.0087575,1.28354
-0.008755,1.28354
-0.0087525,1.28302
-0.00875,1.28354
-0.0087475,1.28354
-0.008745,1.28302
-0.0087425,1.28302
-0.00874,1.28354
-0.0087375,1.28302
-0.008735,1.28354
-0.0087325,1.28302
-0.00873,1.28405
-0.0087275,1.28354
-0.008725,1.28354
-0.0087225,1.28354
-0.00872,1.28302
-0.0087175,1.28354
-0.008715,1.28354
-0.0087125,1.28405
-0.00871,1.28405
-0.0087075,1.28354
-0.008705,1.28405
-0.0087025,1.28405
-0.0087,1.28405
-0.0086975,1.28405
-0.008695,1.28457
-0.0086925,1.2856
-0.00869,1.2856
-0.0086875,1.28509
-0.008685,1.2856
-0.0086825,1.2856
-0.00868,1.2856
-0.0086775,1.2856
-0.008675,1.28664
-0.0086725,1.28612
-0.00867,1.28612
-0.0086675,1.28715
-0.008665,1.28664
-0.0086625,1.28715
-0.00866,1.28715
-0.0086575,1.28767
-0.008655,1.28767
-0.0086525,1.28715
-0.00865,1.28767
-0.0086475,1.28715
-0.008645,1.28819
-0.0086425,1.28819
-0.00864,1.28819
-0.0086375,1.2887
-0.008635,1.28819
-0.0086325,1.28819
-0.00863,1.2887
-0.0086275,1.2887
-0.008625,1.28922
-0.0086225,1.28973
-0.00862,1.28973
-0.0086175,1.2887
-0.008615,1.28922
-0.0086125,1.28973
-0.00861,1.28973
-0.0086075,1.29025
-0.008605,1.29077
-0.0086025,1.29025
-0.0086,1.29025
-0.0085975,1.29025
-0.008595,1.28973
-0.0085925,1.29077
-0.00859,1.29128
-0.0085875,1.2918
-0.008585,1.29128
-0.0085825,1.29128
-0.00858,1.29128
-0.0085775,1.29128
-0.008575,1.2918
-0.0085725,1.2918
-0.00857,1.29232
-0.0085675,1.2918
-0.008565,1.29232
-0.0085625,1.29232
-0.00856,1.2918
-0.0085575,1.29232
-0.008555,1.29283
-0.0085525,1.29335
-0.00855,1.29335
-0.0085475,1.29335
-0.008545,1.29335
-0.0085425,1.29335
-0.00854,1.29335
-0.0085375,1.29387
-0.008535,1.2949
-0.0085325,1.29438
-0.00853,1.29387
-0.0085275,1.29438
-0.008525,1.29438
-0.0085225,1.29438
-0.00852,1.29541
-0.0085175,1.29541
-0.008515,1.29541
-0.0085125,1.29541
-0.00851,1.29541
-0.0085075,1.29593
-0.008505,1.2949
-0.0085025,1.29593
-0.0085,1.29645
-0.0084975,1.29645
-0.008495,1.29593
-0.0084925,1.29645
-0.00849,1.29645
-0.0084875,1.29593
-0.008485,1.29645
-0.0084825,1.29696
-0.00848,1.29748
-0.0084775,1.29748
-0.008475,1.29748
-0.0084725,1.29645
-0.00847,1.298
-0.0084675,1.298
-0.008465,1.298
-0.0084625,1.29851
-0.00846,1.29851
-0.0084575,1.298
-0.008455,1.29851
-0.0084525,1.29903
-0.00845,1.29903
-0.0084475,1.29955
-0.008445,1.29955
-0.0084425,1.29955
-0.00844,1.29903
-0.0084375,1.29955
-0.008435,1.29851
-0.0084325,1.30006
-0.00843,1.30058
-0.0084275,1.30006
-0.008425,1.30006
-0.0084225,1.30006
-0.00842,1.30006
-0.0084175,1.30006
-0.008415,1.30109
-0.0084125,1.30109
-0.00841,1.30161
-0.0084075,1.30213
-0.008405,1.30109
-0.0084025,1.30161
-0.0084,1.30109
-0.0083975,1.30213
-0.008395,1.30264
-0.0083925,1.30213
-0.00839,1.30264
-0.0083875,1.30213
-0.008385,1.30264
-0.0083825,1.30213
-0.00838,1.30368
-0.0083775,1.30368
-0.008375,1.30316
-0.0083725,1.30316
-0.00837,1.30316
-0.0083675,1.30316
-0.008365,1.30316
-0.0083625,1.30419
-0.00836,1.30471
-0.0083575,1.30419
-0.008355,1.30419
-0.0083525,1.30471
-0.00835,1.30419
-0.0083475,1.30471
-0.008345,1.30574
-0.0083425,1.30523
-0.00834,1.30523
-0.0083375,1.30523
-0.008335,1.30523
-0.0083325,1.30523
-0.00833,1.30523
-0.0083275,1.30677
-0.008325,1.30626
-0.0083225,1.30626
-0.00832,1.30677
-0.0083175,1.30626
-0.008315,1.30626
-0.0083125,1.30729
-0.00831,1.30781
-0.0083075,1.30677
-0.008305,1.30781
-0.0083025,1.30781
-0.0083,1.30781
-0.0082975,1.30729
-0.008295,1.30832
-0.0082925,1.30832
-0.00829,1.30832
-0.0082875,1.30884
-0.008285,1.30884
-0.0082825,1.30884
-0.00828,1.30884
-0.0082775,1.30936
-0.008275,1.30936
-0.0082725,1.30884
-0.00827,1.30884
-0.0082675,1.30884
-0.008265,1.30884
-0.0082625,1.30936
-0.00826,1.31039
-0.0082575,1.31039
-0.008255,1.30987
-0.0082525,1.31039
-0.00825,1.31091
-0.0082475,1.31039
-0.008245,1.31039
-0.0082425,1.31091
-0.00824,1.31091
-0.0082375,1.31091
-0.008235,1.31194
-0.0082325,1.31142
-0.00823,1.31142
-0.0082275,1.31091
-0.008225,1.31194
-0.0082225,1.31245
-0.00822,1.31194
-0.0082175,1.31194
-0.008215,1.31297
-0.0082125,1.31194
-0.00821,1.31245
-0.0082075,1.31349
-0.008205,1.314
-0.0082025,1.314
-0.0082,1.31349
-0.0081975,1.31349
-0.008195,1.31349
-0.0081925,1.31297
-0.00819,1.314
-0.0081875,1.314
-0.008185,1.31452
-0.0081825,1.31504
-0.00818,1.314
-0.0081775,1.314
-0.008175,1.31452
-0.0081725,1.31504
-0.00817,1.31452
-0.0081675,1.31555
-0.008165,1.31504
-0.0081625,1.31504
-0.00816,1.31504
-0.0081575,1.31555
-0.008155,1.31659
-0.0081525,1.31659
-0.00815,1.31607
-0.0081475,1.31659
-0.008145,1.31607
-0.0081425,1.31607
-0.00814,1.31659
-0.0081375,1.31659
-0.008135,1.31762
-0.0081325,1.3171
-0.00813,1.31762
-0.0081275,1.31762
-0.008125,1.31762
-0.0081225,1.31762
-0.00812,1.31813
-0.0081175,1.31865
-0.008115,1.31865
-0.0081125,1.31865
-0.00811,1.31865
-0.0081075,1.31865
-0.008105,1.31865
-0.0081025,1.31968
-0.0081,1.31968
-0.0080975,1.31917
-0.008095,1.31917
-0.0080925,1.3202
-0.00809,1.31917
-0.0080875,1.3202
-0.008085,1.3202
-0.0080825,1.32072
-0.00808,1.32072
-0.0080775,1.32072
-0.008075,1.32072
-0.0080725,1.32072
-0.00807,1.32072
-0.0080675,1.32227
-0.008065,1.32072
-0.0080625,1.32175
-0.00806,1.32175
-0.0080575,1.32175
-0.008055,1.32123
-0.0080525,1.32175
-0.00805,1.32278
-0.0080475,1.32175
-0.008045,1.32227
-0.0080425,1.32175
-0.00804,1.32278
-0.0080375,1.32278
-0.008035,1.32278
-0.0080325,1.3233
-0.00803,1.32381
-0.0080275,1.3233
-0.008025,1.3233
-0.0080225,1.3233
-0.00802,1.32278
-0.0080175,1.32381
-0.008015,1.32381
-0.0080125,1.32381
-0.00801,1.32485
-0.0080075,1.32485
-0.008005,1.32536
-0.0080025,1.32485
-0.008,1.32536
-0.0079975,1.32536
-0.007995,1.32536
-0.0079925,1.32588
-0.00799,1.32588
-0.0079875,1.32536
-0.007985,1.32588
-0.0079825,1.3264
-0.00798,1.32536
-0.0079775,1.32691
-0.007975,1.3264
-0.0079725,1.32588
-0.00797,1.3264
-0.0079675,1.3264
-0.007965,1.32691
-0.0079625,1.32743
-0.00796,1.32691
-0.0079575,1.32691
-0.007955,1.32691
-0.0079525,1.32691
-0.00795,1.32795
-0.0079475,1.32846
-0.007945,1.32795
-0.0079425,1.32846
-0.00794,1.32846
-0.0079375,1.32795
-0.007935,1.32898
-0.0079325,1.32846
-0.00793,1.32949
-0.0079275,1.32898
-0.007925,1.32898
-0.0079225,1.32949
-0.00792,1.32898
-0.0079175,1.32898
-0.007915,1.32898
-0.0079125,1.33001
-0.00791,1.33001
-0.0079075,1.33001
-0.007905,1.33053
-0.0079025,1.33001
-0.0079,1.33001
-0.0078975,1.33001
-0.007895,1.33156
-0.0078925,1.33156
-0.00789,1.33053
-0.0078875,1.33104
-0.007885,1.33156
-0.0078825,1.33104
-0.00788,1.33156
-0.0078775,1.33208
-0.007875,1.33208
-0.0078725,1.33208
-0.00787,1.33208
-0.0078675,1.33208
-0.007865,1.33208
-0.0078625,1.33259
-0.00786,1.33363
-0.0078575,1.33363
-0.007855,1.33311
-0.0078525,1.33311
-0.00785,1.33363
-0.0078475,1.33311
-0.007845,1.33311
-0.0078425,1.33414
-0.00784,1.33414
-0.0078375,1.33414
-0.007835,1.33363
-0.0078325,1.33414
-0.00783,1.33466
-0.0078275,1.33363
-0.007825,1.33466
-0.0078225,1.33517
-0.00782,1.33517
-0.0078175,1.33517
-0.007815,1.33517
-0.0078125,1.33466
-0.00781,1.33517
-0.0078075,1.33569
-0.007805,1.33621
-0.0078025,1.33569
-0.0078,1.33569
-0.0077975,1.33621
-0.007795,1.33517
-0.0077925,1.33569
-0.00779,1.33724
-0.0077875,1.33724
-0.007785,1.33724
-0.0077825,1.33724
-0.00778,1.33724
-0.0077775,1.33776
-0.007775,1.33776
-0.0077725,1.33879
-0.00777,1.33827
-0.0077675,1.33776
-0.007765,1.33827
-0.0077625,1.33776
-0.00776,1.33827
-0.0077575,1.33879
-0.007755,1.33879
-0.0077525,1.33931
-0.00775,1.33879
-0.0077475,1.33931
-0.007745,1.33931
-0.0077425,1.33931
-0.00774,1.33931
-0.0077375,1.34034
-0.007735,1.34034
-0.0077325,1.33982
-0.00773,1.34034
-0.0077275,1.34034
-0.007725,1.33931
-0.0077225,1.34034
-0.00772,1.34085
-0.0077175,1.34137
-0.007715,1.34189
-0.0077125,1.34189
-0.00771,1.34137
-0.0077075,1.34189
-0.007705,1.34189
-0.0077025,1.3424
-0.0077,1.3424
-0.0076975,1.34189
-0.007695,1.34292
-0.0076925,1.3424
-0.00769,1.34292
-0.0076875,1.34189
-0.007685,1.3424
-0.0076825,1.34189
-0.00768,1.34189
-0.0076775,1.34189
-0.007675,1.34189
-0.0076725,1.34137
-0.00767,1.34085
-0.0076675,1.34034
-0.007665,1.34085
-0.0076625,1.34034
-0.00766,1.34034
-0.0076575,1.34034
-0.007655,1.34034
-0.0076525,1.33982
-0.00765,1.34034
-0.0076475,1.34085
-0.007645,1.34034
-0.0076425,1.34034
-0.00764,1.34034
-0.0076375,1.33982
-0.007635,1.34034
-0.0076325,1.33982
-0.00763,1.34034
-0.0076275,1.34034
-0.007625,1.34034
-0.0076225,1.33982
-0.00762,1.33982
-0.0076175,1.34034
-0.007615,1.34034
-0.0076125,1.34034
-0.00761,1.33982
-0.0076075,1.34034
-0.007605,1.34034
-0.0076025,1.33982
-0.0076,1.32846
-0.0075975,1.08887
-0.007595,0.789891
-0.0075925,0.631367
-0.00759,0.63653
-0.0075875,0.640145
-0.007585,0.639629
-0.0075825,0.639629
-0.00758,0.639112
-0.0075775,0.639112
-0.007575,0.639112
-0.0075725,0.640145
-0.00757,0.639629
-0.0075675,0.640145
-0.007565,0.640661
-0.0075625,0.641178
-0.00756,0.641178
-0.0075575,0.641694
-0.007555,0.64221
-0.0075525,0.642727
-0.00755,0.643243
-0.0075475,0.643243
-0.007545,0.643759
-0.0075425,0.643243
-0.00754,0.644276
-0.0075375,0.644792
-0.007535,0.644792
-0.0075325,0.644792
-0.00753,0.645309
